Project_Code/d_is_47309_CH1.CSV

,,,Time,Voltage,
Record Length,2.500000e+03,,  -0.001250000000,   4.20880,
Sample Interval,1.000000e-06,,  -0.001249000000,   4.21040,
Trigger Point,1.250000000000e+03,,  -0.001248000000,   4.21120,
,,,  -0.001247000000,   4.21280,
,,,  -0.001246000000,   4.21120,
,,,  -0.001245000000,   4.20240,
Source,CH1,,  -0.001244000000,   4.20320,
Vertical Units,V,,  -0.001243000000,   4.20400,
Vertical Scale,2.000000e-02,,  -0.001242000000,   4.20480,
Vertical Offset,-4.176000e+00,,  -0.001241000000,   4.20880,
Horizontal Units,s,,  -0.001240000000,   4.20640,
Horizontal Scale,2.500000e-04,,  -0.001239000000,   4.20000,
Pt Fmt,Y,,  -0.001238000000,   4.19520,
Yzero,0.000000e+00,,  -0.001237000000,   4.20800,
Probe Atten,1.000000e+01,,  -0.001236000000,   4.20000,
Model Number,TDS2012C,,  -0.001235000000,   4.20880,
Serial Number,C040645,,  -0.001234000000,   4.20720,
Firmware Version,FV:v24.26,,  -0.001233000000,   4.20560,
,,,-00.000880000000,   4.20560,
,,,-00.000879000000,   4.21120,
,,,-00.000878000000,   4.20400,
,,,-00.000877000000,   4.21760,
,,,-00.000876000000,   4.21120,
,,,-00.000875000000,   4.21680,
,,,-00.000874000000,   4.21280,
,,,-00.000873000000,   4.20720,
,,,-00.000872000000,   4.20320,
,,,-00.000871000000,   4.21120,
,,,-00.000870000000,   4.21360,
,,,-00.000869000000,   4.20240,
,,,-00.000868000000,   4.20640,
,,,-00.000867000000,   4.20640,
,,,-00.000866000000,   4.20400,
,,,-00.000865000000,   4.19760,
,,,-00.000864000000,   4.20000,
,,,-00.000863000000,   4.21040,
,,,-00.000862000000,   4.21120,
,,,-00.000861000000,   4.19680,
,,,-00.000860000000,   4.20160,
,,,-00.000859000000,   4.20800,
,,,-00.000858000000,   4.20800,
,,,-00.000857000000,   4.20320,
,,,-00.000856000000,   4.19840,
,,,-00.000855000000,   4.20320,
,,,-00.000854000000,   4.20880,
,,,-00.000853000000,   4.19680,
,,,-00.000852000000,   4.20640,
,,,-00.000851000000,   4.19440,
,,,-00.000850000000,   4.20080,
,,,-00.000849000000,   4.19840,
,,,-00.000848000000,   4.18960,
,,,-00.000847000000,   4.19040,
,,,-00.000846000000,   4.19760,
,,,-00.000845000000,   4.19920,
,,,-00.000844000000,   4.19440,
,,,-00.000843000000,   4.19680,
,,,-00.000842000000,   4.20000,
,,,-00.000841000000,   4.19760,
,,,-00.000840000000,   4.20000,
,,,-00.000839000000,   4.19520,
,,,-00.000838000000,   4.20080,
,,,-00.000837000000,   4.20480,
,,,-00.000836000000,   4.20080,
,,,-00.000835000000,   4.20320,
,,,-00.000834000000,   4.19680,
,,,-00.000833000000,   4.20080,
,,,-00.000832000000,   4.20000,
,,,-00.000831000000,   4.20880,
,,,-00.000830000000,   4.20640,
,,,-00.000829000000,   4.20080,
,,,-00.000828000000,   4.20400,
,,,-00.000827000000,   4.21040,
,,,-00.000826000000,   4.21280,
,,,-00.000825000000,   4.20720,
,,,-00.000824000000,   4.21040,
,,,-00.000823000000,   4.21280,
,,,-00.000822000000,   4.20560,
,,,-00.000821000000,   4.21120,
,,,-00.000820000000,   4.20240,
,,,-00.000819000000,   4.20560,
,,,-00.000818000000,   4.20240,
,,,-00.000817000000,   4.20480,
,,,-00.000816000000,   4.21200,
,,,-00.000815000000,   4.20640,
,,,-00.000814000000,   4.20640,
,,,-00.000813000000,   4.20000,
,,,-00.000812000000,   4.19440,
,,,-00.000811000000,   4.20000,
,,,-00.000810000000,   4.20640,
,,,-00.000809000000,   4.20560,
,,,-00.000808000000,   4.21200,
,,,-00.000807000000,   4.20880,
,,,-00.000806000000,   4.21280,
,,,-00.000805000000,   4.21120,
,,,-00.000804000000,   4.21120,
,,,-00.000803000000,   4.21280,
,,,-00.000802000000,   4.21040,
,,,-00.000801000000,   4.21360,
,,,-00.000800000000,   4.20880,
,,,-00.000799000000,   4.20960,
,,,-00.000798000000,   4.21120,
,,,-00.000797000000,   4.20400,
,,,-00.000796000000,   4.20240,
,,,-00.000795000000,   4.19600,
,,,-00.000794000000,   4.20240,
,,,-00.000793000000,   4.19920,
,,,-00.000792000000,   4.20560,
,,,-00.000791000000,   4.20640,
,,,-00.000790000000,   4.20640,
,,,-00.000789000000,   4.20800,
,,,-00.000788000000,   4.20640,
,,,-00.000787000000,   4.20560,
,,,-00.000786000000,   4.20560,
,,,-00.000785000000,   4.20720,
,,,-00.000784000000,   4.20320,
,,,-00.000783000000,   4.20880,
,,,-00.000782000000,   4.20640,
,,,-00.000781000000,   4.20720,
,,,-00.000780000000,   4.20080,
,,,-00.000779000000,   4.20640,
,,,-00.000778000000,   4.20560,
,,,-00.000777000000,   4.20720,
,,,-00.000776000000,   4.20560,
,,,-00.000775000000,   4.20480,
,,,-00.000774000000,   4.20720,
,,,-00.000773000000,   4.19760,
,,,-00.000772000000,   4.19520,
,,,-00.000771000000,   4.19920,
,,,-00.000770000000,   4.20640,
,,,-00.000769000000,   4.20880,
,,,-00.000768000000,   4.21760,
,,,-00.000767000000,   4.20800,
,,,-00.000766000000,   4.20640,
,,,-00.000765000000,   4.20240,
,,,-00.000764000000,   4.20640,
,,,-00.000763000000,   4.21120,
,,,-00.000762000000,   4.20880,
,,,-00.000761000000,   4.20720,
,,,-00.000760000000,   4.21040,
,,,-00.000759000000,   4.21520,
,,,-00.000758000000,   4.21200,
,,,-00.000757000000,   4.20560,
,,,-00.000756000000,   4.19920,
,,,-00.000755000000,   4.19920,
,,,-00.000754000000,   4.19440,
,,,-00.000753000000,   4.20640,
,,,-00.000752000000,   4.20880,
,,,-00.000751000000,   4.19600,
,,,-00.000750000000,   4.20320,
,,,-00.000749000000,   4.20640,
,,,-00.000748000000,   4.20560,
,,,-00.000747000000,   4.19920,
,,,-00.000746000000,   4.21120,
,,,-00.000745000000,   4.20560,
,,,-00.000744000000,   4.20640,
,,,-00.000743000000,   4.20880,
,,,-00.000742000000,   4.20320,
,,,-00.000741000000,   4.20480,
,,,-00.000740000000,   4.21200,
,,,-00.000739000000,   4.21200,
,,,-00.000738000000,   4.21360,
,,,-00.000737000000,   4.20960,
,,,-00.000736000000,   4.20400,
,,,-00.000735000000,   4.21200,
,,,-00.000734000000,   4.20720,
,,,-00.000733000000,   4.20720,
,,,-00.000732000000,   4.21200,
,,,-00.000731000000,   4.20960,
,,,-00.000730000000,   4.20000,
,,,-00.000729000000,   4.20800,
,,,-00.000728000000,   4.21040,
,,,-00.000727000000,   4.20560,
,,,-00.000726000000,   4.20960,
,,,-00.000725000000,   4.21040,
,,,-00.000724000000,   4.20720,
,,,-00.000723000000,   4.20640,
,,,-00.000722000000,   4.21040,
,,,-00.000721000000,   4.20400,
,,,-00.000720000000,   4.20320,
,,,-00.000719000000,   4.20000,
,,,-00.000718000000,   4.21120,
,,,-00.000717000000,   4.21120,
,,,-00.000716000000,   4.21280,
,,,-00.000715000000,   4.20400,
,,,-00.000714000000,   4.21120,
,,,-00.000713000000,   4.21280,
,,,-00.000712000000,   4.21120,
,,,-00.000711000000,   4.21360,
,,,-00.000710000000,   4.20960,
,,,-00.000709000000,   4.21360,
,,,-00.000708000000,   4.21120,
,,,-00.000707000000,   4.20640,
,,,-00.000706000000,   4.21520,
,,,-00.000705000000,   4.20800,
,,,-00.000704000000,   4.20480,
,,,-00.000703000000,   4.20880,
,,,-00.000702000000,   4.20560,
,,,-00.000701000000,   4.19680,
,,,-00.000700000000,   4.21680,
,,,-00.000699000000,   4.20800,
,,,-00.000698000000,   4.20880,
,,,-00.000697000000,   4.20960,
,,,-00.000696000000,   4.20560,
,,,-00.000695000000,   4.21360,
,,,-00.000694000000,   4.21280,
,,,-00.000693000000,   4.20880,
,,,-00.000692000000,   4.21440,
,,,-00.000691000000,   4.21920,
,,,-00.000690000000,   4.20720,
,,,-00.000689000000,   4.21200,
,,,-00.000688000000,   4.20400,
,,,-00.000687000000,   4.19760,
,,,-00.000686000000,   4.20800,
,,,-00.000685000000,   4.20400,
,,,-00.000684000000,   4.21360,
,,,-00.000683000000,   4.20320,
,,,-00.000682000000,   4.20320,
,,,-00.000681000000,   4.20880,
,,,-00.000680000000,   4.20960,
,,,-00.000679000000,   4.21280,
,,,-00.000678000000,   4.19280,
,,,-00.000677000000,   4.21040,
,,,-00.000676000000,   4.20480,
,,,-00.000675000000,   4.20400,
,,,-00.000674000000,   4.19840,
,,,-00.000673000000,   4.20240,
,,,-00.000672000000,   4.20080,
,,,-00.000671000000,   4.20480,
,,,-00.000670000000,   4.20880,
,,,-00.000669000000,   4.20720,
,,,-00.000668000000,   4.20560,
,,,-00.000667000000,   4.20880,
,,,-00.000666000000,   4.20880,
,,,-00.000665000000,   4.21120,
,,,-00.000664000000,   4.20640,
,,,-00.000663000000,   4.20800,
,,,-00.000662000000,   4.20720,
,,,-00.000661000000,   4.20560,
,,,-00.000660000000,   4.20960,
,,,-00.000659000000,   4.20560,
,,,-00.000658000000,   4.20880,
,,,-00.000657000000,   4.20880,
,,,-00.000656000000,   4.20960,
,,,-00.000655000000,   4.20880,
,,,-00.000654000000,   4.20960,
,,,-00.000653000000,   4.20960,
,,,-00.000652000000,   4.21040,
,,,-00.000651000000,   4.20960,
,,,-00.000650000000,   4.20880,
,,,-00.000649000000,   4.21120,
,,,-00.000648000000,   4.21520,
,,,-00.000647000000,   4.21280,
,,,-00.000646000000,   4.21280,
,,,-00.000645000000,   4.20960,
,,,-00.000644000000,   4.21520,
,,,-00.000643000000,   4.21040,
,,,-00.000642000000,   4.20640,
,,,-00.000641000000,   4.20320,
,,,-00.000640000000,   4.20880,
,,,-00.000639000000,   4.21680,
,,,-00.000638000000,   4.21040,
,,,-00.000637000000,   4.21280,
,,,-00.000636000000,   4.21280,
,,,-00.000635000000,   4.21440,
,,,-00.000634000000,   4.20960,
,,,-00.000633000000,   4.21120,
,,,-00.000632000000,   4.20640,
,,,-00.000631000000,   4.21680,
,,,-00.000630000000,   4.20960,
,,,-00.000629000000,   4.21360,
,,,-00.000628000000,   4.20640,
,,,-00.000627000000,   4.20640,
,,,-00.000626000000,   4.21040,
,,,-00.000625000000,   4.20240,
,,,-00.000624000000,   4.21360,
,,,-00.000623000000,   4.21680,
,,,-00.000622000000,   4.21360,
,,,-00.000621000000,   4.21200,
,,,-00.000620000000,   4.20320,
,,,-00.000619000000,   4.20000,
,,,-00.000618000000,   4.20320,
,,,-00.000617000000,   4.19600,
,,,-00.000616000000,   4.19600,
,,,-00.000615000000,   4.21280,
,,,-00.000614000000,   4.21760,
,,,-00.000613000000,   4.20320,
,,,-00.000612000000,   4.20400,
,,,-00.000611000000,   4.20400,
,,,-00.000610000000,   4.21040,
,,,-00.000609000000,   4.20160,
,,,-00.000608000000,   4.20880,
,,,-00.000607000000,   4.20560,
,,,-00.000606000000,   4.20240,
,,,-00.000605000000,   4.20880,
,,,-00.000604000000,   4.20240,
,,,-00.000603000000,   4.20720,
,,,-00.000602000000,   4.20320,
,,,-00.000601000000,   4.20320,
,,,-00.000600000000,   4.20880,
,,,-00.000599000000,   4.20640,
,,,-00.000598000000,   4.20320,
,,,-00.000597000000,   4.19760,
,,,-00.000596000000,   4.20560,
,,,-00.000595000000,   4.21120,
,,,-00.000594000000,   4.21360,
,,,-00.000593000000,   4.21120,
,,,-00.000592000000,   4.21200,
,,,-00.000591000000,   4.20960,
,,,-00.000590000000,   4.20640,
,,,-00.000589000000,   4.21040,
,,,-00.000588000000,   4.20880,
,,,-00.000587000000,   4.21760,
,,,-00.000586000000,   4.20640,
,,,-00.000585000000,   4.21040,
,,,-00.000584000000,   4.20800,
,,,-00.000583000000,   4.20400,
,,,-00.000582000000,   4.20400,
,,,-00.000581000000,   4.21040,
,,,-00.000580000000,   4.20160,
,,,-00.000579000000,   4.20960,
,,,-00.000578000000,   4.20880,
,,,-00.000577000000,   4.20160,
,,,-00.000576000000,   4.20720,
,,,-00.000575000000,   4.21280,
,,,-00.000574000000,   4.20720,
,,,-00.000573000000,   4.21120,
,,,-00.000572000000,   4.21360,
,,,-00.000571000000,   4.20560,
,,,-00.000570000000,   4.21360,
,,,-00.000569000000,   4.21360,
,,,-00.000568000000,   4.21280,
,,,-00.000567000000,   4.20560,
,,,-00.000566000000,   4.20960,
,,,-00.000565000000,   4.21200,
,,,-00.000564000000,   4.20720,
,,,-00.000563000000,   4.21360,
,,,-00.000562000000,   4.20960,
,,,-00.000561000000,   4.20960,
,,,-00.000560000000,   4.20640,
,,,-00.000559000000,   4.21680,
,,,-00.000558000000,   4.20880,
,,,-00.000557000000,   4.21360,
,,,-00.000556000000,   4.21120,
,,,-00.000555000000,   4.20800,
,,,-00.000554000000,   4.20720,
,,,-00.000553000000,   4.20640,
,,,-00.000552000000,   4.20880,
,,,-00.000551000000,   4.20000,
,,,-00.000550000000,   4.19920,
,,,-00.000549000000,   4.19760,
,,,-00.000548000000,   4.19760,
,,,-00.000547000000,   4.20560,
,,,-00.000546000000,   4.20880,
,,,-00.000545000000,   4.20320,
,,,-00.000544000000,   4.20240,
,,,-00.000543000000,   4.20880,
,,,-00.000542000000,   4.20160,
,,,-00.000541000000,   4.19760,
,,,-00.000540000000,   4.20880,
,,,-00.000539000000,   4.20000,
,,,-00.000538000000,   4.20560,
,,,-00.000537000000,   4.20000,
,,,-00.000536000000,   4.19840,
,,,-00.000535000000,   4.20080,
,,,-00.000534000000,   4.19520,
,,,-00.000533000000,   4.20320,
,,,-00.000532000000,   4.20880,
,,,-00.000531000000,   4.19680,
,,,-00.000530000000,   4.20080,
,,,-00.000529000000,   4.20320,
,,,-00.000528000000,   4.20320,
,,,-00.000527000000,   4.20400,
,,,-00.000526000000,   4.20480,
,,,-00.000525000000,   4.20960,
,,,-00.000524000000,   4.20720,
,,,-00.000523000000,   4.21280,
,,,-00.000522000000,   4.20240,
,,,-00.000521000000,   4.20720,
,,,-00.000520000000,   4.20720,
,,,-00.000519000000,   4.20320,
,,,-00.000518000000,   4.21200,
,,,-00.000517000000,   4.20800,
,,,-00.000516000000,   4.21280,
,,,-00.000515000000,   4.20320,
,,,-00.000514000000,   4.20560,
,,,-00.000513000000,   4.20080,
,,,-00.000512000000,   4.20800,
,,,-00.000511000000,   4.20480,
,,,-00.000510000000,   4.21840,
,,,-00.000509000000,   4.21040,
,,,-00.000508000000,   4.20960,
,,,-00.000507000000,   4.21040,
,,,-00.000506000000,   4.20320,
,,,-00.000505000000,   4.21200,
,,,-00.000504000000,   4.20880,
,,,-00.000503000000,   4.21120,
,,,-00.000502000000,   4.21120,
,,,-00.000501000000,   4.20880,
,,,-00.000500000000,   4.20880,
,,,-00.000499000000,   4.20960,
,,,-00.000498000000,   4.21440,
,,,-00.000497000000,   4.21440,
,,,-00.000496000000,   4.20720,
,,,-00.000495000000,   4.21360,
,,,-00.000494000000,   4.20800,
,,,-00.000493000000,   4.20800,
,,,-00.000492000000,   4.20000,
,,,-00.000491000000,   4.21360,
,,,-00.000490000000,   4.21440,
,,,-00.000489000000,   4.21040,
,,,-00.000488000000,   4.20960,
,,,-00.000487000000,   4.20960,
,,,-00.000486000000,   4.21280,
,,,-00.000485000000,   4.21360,
,,,-00.000484000000,   4.21120,
,,,-00.000483000000,   4.20640,
,,,-00.000482000000,   4.21040,
,,,-00.000481000000,   4.20800,
,,,-00.000480000000,   4.20720,
,,,-00.000479000000,   4.21600,
,,,-00.000478000000,   4.21360,
,,,-00.000477000000,   4.21520,
,,,-00.000476000000,   4.20560,
,,,-00.000475000000,   4.20960,
,,,-00.000474000000,   4.20880,
,,,-00.000473000000,   4.20560,
,,,-00.000472000000,   4.21440,
,,,-00.000471000000,   4.20960,
,,,-00.000470000000,   4.20960,
,,,-00.000469000000,   4.20800,
,,,-00.000468000000,   4.19680,
,,,-00.000467000000,   4.19520,
,,,-00.000466000000,   4.19520,
,,,-00.000465000000,   4.19280,
,,,-00.000464000000,   4.19840,
,,,-00.000463000000,   4.21040,
,,,-00.000462000000,   4.21120,
,,,-00.000461000000,   4.19760,
,,,-00.000460000000,   4.20080,
,,,-00.000459000000,   4.20640,
,,,-00.000458000000,   4.21200,
,,,-00.000457000000,   4.20160,
,,,-00.000456000000,   4.21040,
,,,-00.000455000000,   4.20640,
,,,-00.000454000000,   4.20640,
,,,-00.000453000000,   4.21680,
,,,-00.000452000000,   4.20480,
,,,-00.000451000000,   4.20640,
,,,-00.000450000000,   4.21120,
,,,-00.000449000000,   4.20880,
,,,-00.000448000000,   4.20880,
,,,-00.000447000000,   4.20800,
,,,-00.000446000000,   4.20320,
,,,-00.000445000000,   4.20000,
,,,-00.000444000000,   4.20880,
,,,-00.000443000000,   4.21120,
,,,-00.000442000000,   4.21600,
,,,-00.000441000000,   4.20400,
,,,-00.000440000000,   4.21200,
,,,-00.000439000000,   4.20880,
,,,-00.000438000000,   4.20640,
,,,-00.000437000000,   4.20720,
,,,-00.000436000000,   4.20720,
,,,-00.000435000000,   4.21120,
,,,-00.000434000000,   4.20880,
,,,-00.000433000000,   4.21520,
,,,-00.000432000000,   4.21120,
,,,-00.000431000000,   4.21120,
,,,-00.000430000000,   4.20560,
,,,-00.000429000000,   4.21360,
,,,-00.000428000000,   4.21120,
,,,-00.000427000000,   4.21360,
,,,-00.000426000000,   4.21360,
,,,-00.000425000000,   4.20720,
,,,-00.000424000000,   4.21200,
,,,-00.000423000000,   4.21680,
,,,-00.000422000000,   4.20640,
,,,-00.000421000000,   4.20960,
,,,-00.000420000000,   4.21360,
,,,-00.000419000000,   4.20960,
,,,-00.000418000000,   4.21200,
,,,-00.000417000000,   4.20560,
,,,-00.000416000000,   4.21120,
,,,-00.000415000000,   4.21440,
,,,-00.000414000000,   4.21680,
,,,-00.000413000000,   4.20880,
,,,-00.000412000000,   4.21120,
,,,-00.000411000000,   4.20560,
,,,-00.000410000000,   4.20960,
,,,-00.000409000000,   4.20400,
,,,-00.000408000000,   4.21120,
,,,-00.000407000000,   4.20800,
,,,-00.000406000000,   4.20400,
,,,-00.000405000000,   4.21120,
,,,-00.000404000000,   4.20640,
,,,-00.000403000000,   4.20880,
,,,-00.000402000000,   4.19760,
,,,-00.000401000000,   4.21120,
,,,-00.000400000000,   4.20000,
,,,-00.000399000000,   4.19760,
,,,-00.000398000000,   4.20160,
,,,-00.000397000000,   4.20080,
,,,-00.000396000000,   4.20800,
,,,-00.000395000000,   4.20400,
,,,-00.000394000000,   4.20400,
,,,-00.000393000000,   4.20560,
,,,-00.000392000000,   4.20320,
,,,-00.000391000000,   4.20640,
,,,-00.000390000000,   4.19440,
,,,-00.000389000000,   4.20240,
,,,-00.000388000000,   4.20560,
,,,-00.000387000000,   4.20640,
,,,-00.000386000000,   4.17840,
,,,-00.000385000000,   4.20320,
,,,-00.000384000000,   4.19840,
,,,-00.000383000000,   4.20320,
,,,-00.000382000000,   4.21200,
,,,-00.000381000000,   4.20800,
,,,-00.000380000000,   4.20240,
,,,-00.000379000000,   4.20160,
,,,-00.000378000000,   4.20640,
,,,-00.000377000000,   4.21040,
,,,-00.000376000000,   4.20720,
,,,-00.000375000000,   4.20720,
,,,-00.000374000000,   4.21200,
,,,-00.000373000000,   4.20960,
,,,-00.000372000000,   4.21440,
,,,-00.000371000000,   4.20640,
,,,-00.000370000000,   4.20560,
,,,-00.000369000000,   4.20720,
,,,-00.000368000000,   4.20800,
,,,-00.000367000000,   4.21360,
,,,-00.000366000000,   4.20880,
,,,-00.000365000000,   4.20880,
,,,-00.000364000000,   4.19920,
,,,-00.000363000000,   4.20000,
,,,-00.000362000000,   4.20560,
,,,-00.000361000000,   4.20960,
,,,-00.000360000000,   4.20080,
,,,-00.000359000000,   4.21200,
,,,-00.000358000000,   4.20880,
,,,-00.000357000000,   4.20640,
,,,-00.000356000000,   4.20880,
,,,-00.000355000000,   4.20720,
,,,-00.000354000000,   4.21600,
,,,-00.000353000000,   4.21200,
,,,-00.000352000000,   4.21120,
,,,-00.000351000000,   4.21200,
,,,-00.000350000000,   4.20640,
,,,-00.000349000000,   4.20480,
,,,-00.000348000000,   4.20800,
,,,-00.000347000000,   4.20640,
,,,-00.000346000000,   4.21520,
,,,-00.000345000000,   4.20800,
,,,-00.000344000000,   4.20640,
,,,-00.000343000000,   4.20720,
,,,-00.000342000000,   4.20160,
,,,-00.000341000000,   4.20880,
,,,-00.000340000000,   4.20480,
,,,-00.000339000000,   4.20640,
,,,-00.000338000000,   4.20720,
,,,-00.000337000000,   4.21840,
,,,-00.000336000000,   4.21600,
,,,-00.000335000000,   4.20880,
,,,-00.000334000000,   4.21680,
,,,-00.000333000000,   4.21040,
,,,-00.000332000000,   4.20880,
,,,-00.000331000000,   4.21200,
,,,-00.000330000000,   4.21040,
,,,-00.000329000000,   4.21040,
,,,-00.000328000000,   4.20480,
,,,-00.000327000000,   4.21520,
,,,-00.000326000000,   4.20800,
,,,-00.000325000000,   4.21360,
,,,-00.000324000000,   4.21360,
,,,-00.000323000000,   4.21040,
,,,-00.000322000000,   4.20560,
,,,-00.000321000000,   4.21200,
,,,-00.000320000000,   4.21200,
,,,-00.000319000000,   4.20640,
,,,-00.000318000000,   4.20400,
,,,-00.000317000000,   4.20800,
,,,-00.000316000000,   4.19840,
,,,-00.000315000000,   4.19920,
,,,-00.000314000000,   4.20640,
,,,-00.000313000000,   4.19760,
,,,-00.000312000000,   4.20480,
,,,-00.000311000000,   4.20720,
,,,-00.000310000000,   4.19760,
,,,-00.000309000000,   4.20560,
,,,-00.000308000000,   4.20320,
,,,-00.000307000000,   4.20880,
,,,-00.000306000000,   4.20640,
,,,-00.000305000000,   4.20320,
,,,-00.000304000000,   4.20640,
,,,-00.000303000000,   4.19920,
,,,-00.000302000000,   4.20640,
,,,-00.000301000000,   4.20560,
,,,-00.000300000000,   4.20000,
,,,-00.000299000000,   4.20000,
,,,-00.000298000000,   4.20480,
,,,-00.000297000000,   4.20960,
,,,-00.000296000000,   4.20720,
,,,-00.000295000000,   4.21360,
,,,-00.000294000000,   4.20640,
,,,-00.000293000000,   4.20560,
,,,-00.000292000000,   4.19920,
,,,-00.000291000000,   4.21120,
,,,-00.000290000000,   4.20880,
,,,-00.000289000000,   4.21120,
,,,-00.000288000000,   4.21040,
,,,-00.000287000000,   4.21760,
,,,-00.000286000000,   4.20880,
